%YAML 1.1
%TAG !u! tag:unity3d.com,2011:
--- !u!114 &11400000
MonoBehaviour:
  m_ObjectHideFlags: 0
  m_CorrespondingSourceObject: {fileID: 0}
  m_PrefabInstance: {fileID: 0}
  m_PrefabAsset: {fileID: 0}
  m_GameObject: {fileID: 0}
  m_Enabled: 1
  m_EditorHideFlags: 0
  m_Script: {fileID: 11500000, guid: 4732af09723ca1b49b9111be0a8bd491, type: 3}
  m_Name: ClusterBombConfig
  m_EditorClassIdentifier: 
  radius: 15
  prefab: {fileID: 1054119080236593108, guid: a038f290b4f7e4a4ea1afbcb6cebcded, type: 3}
  clustersCount: 5
  childBombConfig: {fileID: 11400000, guid: 117c0c8cc85213540a2e3c7f5aa3c978, type: 2}
