%YAML 1.1
%TAG !u! tag:unity3d.com,2011:
--- !u!114 &11400000
MonoBehaviour:
  m_ObjectHideFlags: 0
  m_CorrespondingSourceObject: {fileID: 0}
  m_PrefabInstance: {fileID: 0}
  m_PrefabAsset: {fileID: 0}
  m_GameObject: {fileID: 0}
  m_Enabled: 1
  m_EditorHideFlags: 0
  m_Script: {fileID: 11500000, guid: 80a56411e062cee43bf02d9b14fc86d5, type: 3}
  m_Name: GameConfig
  m_EditorClassIdentifier: 
  bombConfigs:
  - {fileID: 11400000, guid: c3a2586b559ddf84497dc5d3fff95d7b, type: 2}
  - {fileID: 11400000, guid: f9d4d66ac3f16e441bd8b5c75bd7848f, type: 2}
  - {fileID: 11400000, guid: ae30628744ba0094181855e86cb19f28, type: 2}
  creatureConfigs:
  - health: 12
    prefab: {fileID: 5704594436893731561, guid: 3d98498197bd2424fbd1d3d4a994411d,
      type: 3}
  - health: 15
    prefab: {fileID: 7378867284504593978, guid: 44a544dc9662c0041a8242709d89e5cd,
      type: 3}
  bombSpawnerConfig:
    interval: 1
    bounds:
      m_Center: {x: 0, y: 20, z: 0}
      m_Extent: {x: 10, y: 0, z: 10}
  creatureSpawnerConfig:
    interval: 0.9
    bounds:
      m_Center: {x: 0, y: 0.5, z: 0}
      m_Extent: {x: 10, y: 0, z: 10}
  wallGeneratorConfig:
    wallsCount: 10
    bounds:
      m_Center: {x: 0, y: 1, z: 0}
      m_Extent: {x: 10, y: 0, z: 10}
    wallPrefabs:
    - {fileID: 4206724918351299529, guid: c9a53cd961ffb4643abe35a3c65b9ec9, type: 3}
